{
  "variables": {
    "aws_access_key": "AKIAIZIFBMVB2BNWQKIA",
    "aws_secret_key": "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"
  },
  "builders": [{
    "type": "amazon-ebs",
    "access_key": "{{user `aws_access_key`}}",
    "secret_key": "{{user `aws_secret_key`}}",
    "region": "eu-west-1",
    "source_ami": "ami-f9dd458a",
    "instance_type": "t2.micro",
    "ssh_username": "ec2-user",
    "ami_name": "Bawbags Web - Packer {{timestamp}}",
    "ami_block_device_mappings": [{
      "delete_on_termination": false,
      "device_name": "/dev/sdb",
      "virtual_name": "ephemeral0",
      "volume_size": 4,
      "volume_type": "gp2"
    }]
  }],
  "provisioners": [
  {
    "type": "file",
    "source": "bawbags-web.tar.gz",
    "destination": "/tmp/bawbags-web.tar.gz"
  },
  {
    "type": "shell",
    "inline": ["cd /tmp && tar zxvf bawbags-web.tar.gz"]
  },
  {
    "type": "shell",
    "remote_folder": "tmp",
    "script": "bootstrap.sh",
    "execute_command": "cd /tmp && chmod +x bootstrap.sh && sudo ./bootstrap.sh web"
  }
  ]
}
